{
  "files": {
    "main.css": "/static/css/main.e6c13ad2.css",
    "main.js": "/static/js/main.4f0c4a35.js",
    "index.html": "/index.html",
    "main.e6c13ad2.css.map": "/static/css/main.e6c13ad2.css.map",
    "main.4f0c4a35.js.map": "/static/js/main.4f0c4a35.js.map"
  },
  "entrypoints": [
    "static/css/main.e6c13ad2.css",
    "static/js/main.4f0c4a35.js"
  ]
}